%YAML 1.1
%TAG !u! tag:unity3d.com,2011:
--- !u!114 &11400000
MonoBehaviour:
  m_ObjectHideFlags: 0
  m_CorrespondingSourceObject: {fileID: 0}
  m_PrefabInternal: {fileID: 0}
  m_GameObject: {fileID: 0}
  m_Enabled: 1
  m_EditorHideFlags: 0
  m_Script: {fileID: 11500000, guid: 29178733c9e76dc48a8a7d0078911e54, type: 3}
  m_Name: MeleeSkeleton
  m_EditorClassIdentifier: 
  Health: 50
  MaxHealth: 80
  Energy: 80
  MaxEnergy: 80
  Damage: 3
  MovementSpeed: 1
  Agility: 1
  Level: 1
  AttackRange: 4
  Type: 1
  EnemyName: Skeleton
  Description: Melee skeleton
  VisionRange: 8
  givenExperience: 22
